{
    "KPlugin": {
        "Category": "Project Management",
        "Description": "KDevelop Ninja Builder",
        "Description[ca@valencia]": "Constructor Ninja del KDevelop",
        "Description[ca]": "Constructor Ninja del KDevelop",
        "Description[de]": "KDevelop-Ninja-Erstellung",
        "Description[es]": "Compilador Ninja para KDevelop",
        "Description[et]": "KDevelopi Ninja ehitaja",
        "Description[fi]": "KDevelop Ninja-käännin",
        "Description[fr]": "Constructeur Ninja de KDevelop",
        "Description[gl]": "Construtor de Ninja para KDevelop.",
        "Description[it]": "Compilatore Ninja di KDevelop",
        "Description[nl]": "KDevelop Ninja-bouwprogramma",
        "Description[pl]": "Budowniczy Debugger dla KDevelop",
        "Description[pt]": "Construtor de Projectos Ninja no KDevelop",
        "Description[pt_BR]": "Compilador Ninja do KDevelop",
        "Description[sk]": "Zostavovač KDevelop Ninja",
        "Description[sl]": "Izgrajevalnik Ninja za KDevelop",
        "Description[sv]": "KDevelop byggverktyg för Ninja",
        "Description[tr]": "KDevelop Ninja Oluşturucu",
        "Description[uk]": "Збирач Ninja для KDevelop",
        "Description[x-test]": "xxKDevelop Ninja Builderxx",
        "Description[zh_CN]": "KDevelop Ninja 构建器",
        "Icon": "kdevelop",
        "Id": "KDevNinjaBuilder",
        "Name": "Ninja Project Builder",
        "Name[ca@valencia]": "Constructor de projectes Ninja",
        "Name[ca]": "Constructor de projectes Ninja",
        "Name[cs]": "Překladač projektů Ninja",
        "Name[de]": "Ninja-Projekterstellung",
        "Name[es]": "Compilador de proyectos Ninja",
        "Name[et]": "Ninja projektiehitaja",
        "Name[fi]": "Ninja-projektikäännin",
        "Name[fr]": "Constructeur de projet Ninja",
        "Name[gl]": "Construtor de proxectos Ninja",
        "Name[it]": "Compilatore progetto Ninja",
        "Name[nl]": "Ninja-project bouwprogramma",
        "Name[pl]": "Budowanie projektu Ninja",
        "Name[pt]": "Construtor de Projectos Ninja",
        "Name[pt_BR]": "Compilador de projetos Ninja",
        "Name[sk]": "Zostavovač projektov Ninja",
        "Name[sl]": "Izgrajevalnik projektov Ninja",
        "Name[sv]": "Ninja projektbyggverktyg",
        "Name[tr]": "Ninja Proje Oluşturucu",
        "Name[uk]": "Збирач проектів Ninja",
        "Name[x-test]": "xxNinja Project Builderxx",
        "Name[zh_CN]": "Ninja 工程构建器",
        "ServiceTypes": [
            "KDevelop/Plugin"
        ]
    },
    "X-KDevelop-Category": "Project",
    "X-KDevelop-IRequired": [
        "org.kdevelop.IOutputView"
    ],
    "X-KDevelop-Interfaces": [
        "org.kdevelop.IProjectBuilder"
    ],
    "X-KDevelop-Mode": "NoGUI"
}
